<svg width="56" height="56" viewBox="0 0 56 56" fill="none" xmlns="http://www.w3.org/2000/svg">
<path fill-rule="evenodd" clip-rule="evenodd" d="M49.636 30.8643C49.3431 30.5714 49.3431 30.0965 49.636 29.8037C49.9289 29.5108 50.4038 29.5108 50.6967 29.8037L54.1967 33.3037C54.4896 33.5965 54.4896 34.0714 54.1967 34.3643C53.9038 34.6572 53.4289 34.6572 53.136 34.3643L49.636 30.8643ZM34.3633 29.8037C34.6562 30.0965 34.6562 30.5714 34.3633 30.8643L30.8633 34.3643C30.5704 34.6572 30.0956 34.6572 29.8027 34.3643C29.5098 34.0714 29.5098 33.5965 29.8027 33.3037L33.3027 29.8037C33.5956 29.5108 34.0704 29.5108 34.3633 29.8037ZM32.2498 42C32.2498 36.6152 36.615 32.25 41.9998 32.25C47.3845 32.25 51.7498 36.6152 51.7498 42C51.7498 47.3848 47.3845 51.75 41.9998 51.75C36.615 51.75 32.2498 47.3848 32.2498 42ZM41.9998 30.75C35.7866 30.75 30.7498 35.7868 30.7498 42C30.7498 48.2132 35.7866 53.25 41.9998 53.25C48.213 53.25 53.2498 48.2132 53.2498 42C53.2498 35.7868 48.213 30.75 41.9998 30.75ZM42.7497 37.334C42.7497 36.9198 42.4139 36.584 41.9997 36.584C41.5855 36.584 41.2497 36.9198 41.2497 37.334V42.0007C41.2497 42.2514 41.375 42.4856 41.5836 42.6247L45.0836 44.958C45.4283 45.1878 45.8939 45.0947 46.1237 44.75C46.3535 44.4054 46.2603 43.9397 45.9157 43.7099L42.7497 41.5993V37.334Z" fill="#6B757C"/>
<path fill-rule="evenodd" clip-rule="evenodd" d="M9.33334 0.416016C9.74755 0.416016 10.0833 0.751802 10.0833 1.16602V2.75H10.0882H16.5L16.5564 2.75C17.0354 2.75 17.4884 2.74999 17.9167 2.7527V1.16602C17.9167 0.751802 18.2525 0.416016 18.6667 0.416016C19.0809 0.416016 19.4167 0.751802 19.4167 1.16602V2.78117C19.9975 2.80299 20.5201 2.84008 20.989 2.90313C22.1614 3.06076 23.1104 3.39288 23.8588 4.14124C24.6071 4.88961 24.9392 5.83855 25.0969 7.01098C25.25 8.15018 25.25 9.6058 25.25 11.4435V11.4436V11.5V16.5V16.5564V16.5565C25.25 18.3942 25.25 19.8498 25.0969 20.989C24.9392 22.1614 24.6071 23.1104 23.8588 23.8588C23.1104 24.6071 22.1614 24.9392 20.989 25.0969C19.8498 25.25 18.3942 25.25 16.5565 25.25H16.5564H16.5H11.5H11.4436H11.4435C9.6058 25.25 8.15018 25.25 7.01098 25.0969C5.83856 24.9392 4.88961 24.6071 4.14124 23.8588C3.39288 23.1104 3.06076 22.1614 2.90313 20.989C2.74997 19.8498 2.74998 18.3942 2.75 16.5564V16.5V10.0882V10.0526C2.74999 8.87376 2.74999 7.93963 2.81608 7.18872C2.8837 6.42041 3.0249 5.77281 3.35029 5.18863C3.78019 4.41682 4.41682 3.78019 5.18863 3.35029C5.77281 3.0249 6.42041 2.8837 7.18872 2.81608C7.59633 2.7802 8.05793 2.7638 8.58334 2.75631V1.16602C8.58334 0.751802 8.91912 0.416016 9.33334 0.416016ZM17.9167 4.25293V4.66602C17.9167 5.08023 18.2525 5.41602 18.6667 5.41602C19.0809 5.41602 19.4167 5.08023 19.4167 4.66602V4.28212C19.9334 4.30244 20.3864 4.33561 20.7892 4.38976C21.7952 4.52502 22.3749 4.77869 22.7981 5.2019C23.2213 5.62511 23.475 6.20476 23.6102 7.21085C23.7484 8.23851 23.75 9.59318 23.75 11.5V16.5C23.75 18.4068 23.7484 19.7615 23.6102 20.7892C23.475 21.7952 23.2213 22.3749 22.7981 22.7981C22.3749 23.2213 21.7952 23.475 20.7892 23.6102C19.7615 23.7484 18.4068 23.75 16.5 23.75H11.5C9.59318 23.75 8.23851 23.7484 7.21085 23.6102C6.20476 23.475 5.62511 23.2213 5.2019 22.7981C4.77869 22.3749 4.52502 21.7952 4.38976 20.7892C4.25159 19.7615 4.25 18.4068 4.25 16.5V10.0882C4.25 8.86582 4.25068 7.99768 4.3103 7.32023C4.36906 6.65261 4.48061 6.24191 4.66073 5.91853C4.95487 5.39045 5.39045 4.95487 5.91853 4.66073C6.24191 4.48061 6.65261 4.36906 7.32023 4.3103C7.6795 4.27868 8.0924 4.26364 8.58334 4.25649V4.66602C8.58334 5.08023 8.91912 5.41602 9.33334 5.41602C9.74755 5.41602 10.0833 5.08023 10.0833 4.66602V4.25H10.0882H16.5C17.0103 4.25 17.4811 4.25011 17.9167 4.25293ZM12.5375 17.8331C12.9636 18.0107 13.4501 18.0994 13.997 18.0994C14.5438 18.0994 15.0292 18.0107 15.4529 17.8331C15.8791 17.6532 16.2129 17.4081 16.4544 17.098C16.6958 16.7879 16.8178 16.4363 16.8201 16.0433C16.8178 15.7403 16.7456 15.4621 16.6035 15.2088C16.4638 14.9531 16.2744 14.7412 16.0353 14.5732C15.7986 14.4027 15.5346 14.2938 15.2434 14.2464V14.1967C15.6246 14.1186 15.9371 13.9304 16.1809 13.6321C16.4248 13.3338 16.5479 12.9846 16.5502 12.5845C16.5479 12.2105 16.4366 11.8767 16.2164 11.5831C15.9963 11.2872 15.6932 11.054 15.3073 10.8835C14.9238 10.7131 14.487 10.6278 13.997 10.6278C13.5069 10.6278 13.0689 10.7131 12.6831 10.8835C12.2995 11.0516 11.9977 11.2836 11.7775 11.5795C11.5573 11.8731 11.4473 12.2081 11.4473 12.5845C11.4473 12.9822 11.568 13.3314 11.8095 13.6321C12.051 13.9304 12.3658 14.1186 12.7541 14.1967V14.2464C12.4581 14.2938 12.1906 14.4027 11.9515 14.5732C11.7124 14.7412 11.523 14.9531 11.3833 15.2088C11.246 15.4621 11.1774 15.7403 11.1774 16.0433C11.1774 16.4363 11.2981 16.7879 11.5396 17.098C11.7811 17.4081 12.1137 17.6532 12.5375 17.8331ZM14.6362 16.8388C14.4539 16.9264 14.2408 16.9702 13.997 16.9702C13.7555 16.9702 13.5424 16.9264 13.3578 16.8388C13.1731 16.7488 13.0299 16.6257 12.9281 16.4695C12.8263 16.3108 12.7754 16.1286 12.7754 15.9226C12.7754 15.7119 12.8275 15.526 12.9316 15.3651C13.0382 15.2017 13.1838 15.0739 13.3684 14.9815C13.5531 14.8868 13.7626 14.8395 13.997 14.8395C14.2337 14.8395 14.4432 14.8868 14.6255 14.9815C14.8078 15.0739 14.9522 15.2017 15.0588 15.3651C15.1653 15.526 15.2186 15.7119 15.2186 15.9226C15.2186 16.1286 15.1665 16.3108 15.0623 16.4695C14.9605 16.6257 14.8185 16.7488 14.6362 16.8388ZM14.5403 13.5966C14.3817 13.6795 14.2006 13.7209 13.997 13.7209C13.7934 13.7209 13.6123 13.6795 13.4537 13.5966C13.295 13.5137 13.1707 13.3989 13.0808 13.2521C12.9908 13.1054 12.9458 12.9361 12.9458 12.7443C12.9458 12.5549 12.9896 12.3892 13.0772 12.2472C13.1672 12.1027 13.2915 11.9903 13.4501 11.9098C13.6087 11.8269 13.791 11.7855 13.997 11.7855C14.2053 11.7855 14.3876 11.8269 14.5438 11.9098C14.7001 11.9903 14.8232 12.1027 14.9132 12.2472C15.0031 12.3892 15.0481 12.5549 15.0481 12.7443C15.0481 12.9361 15.0031 13.1054 14.9132 13.2521C14.8232 13.3989 14.6989 13.5137 14.5403 13.5966Z" fill="#6B757C"/>
<path d="M15 20C15 17.2386 17.2386 15 20 15L36 15C38.7614 15 41 17.2386 41 20L41 36C41 38.7614 38.7614 41 36 41L20 41C17.2386 41 15 38.7614 15 36L15 20Z" fill="#F4F5F6"/>
<path fill-rule="evenodd" clip-rule="evenodd" d="M30.762 19C29.3342 19 28.1767 20.1575 28.1767 21.5854C28.1767 23.0132 29.3342 24.1707 30.762 24.1707C31.9288 24.1707 32.9151 23.3977 33.2367 22.3359L36.2682 22.3359C36.6824 22.3359 37.0182 22.0002 37.0182 21.5859C37.0182 21.1717 36.6824 20.8359 36.2682 20.8359L33.2371 20.8359C32.9158 19.7735 31.9293 19 30.762 19ZM29.6767 21.5854C29.6767 20.9859 30.1626 20.5 30.762 20.5C31.3615 20.5 31.8474 20.9859 31.8474 21.5854C31.8474 22.1848 31.3615 22.6707 30.762 22.6707C30.1626 22.6707 29.6767 22.1848 29.6767 21.5854ZM19.75 20.8359C19.3358 20.8359 19 21.1717 19 21.5859C19 22.0002 19.3358 22.3359 19.75 22.3359L26.1737 22.3359C26.5879 22.3359 26.9237 22.0002 26.9237 21.5859C26.9237 21.1717 26.5879 20.8359 26.1737 20.8359L19.75 20.8359ZM19.75 33.6836C19.3358 33.6836 19 34.0194 19 34.4336C19 34.8478 19.3358 35.1836 19.75 35.1836L26.1737 35.1836C26.5879 35.1836 26.9237 34.8478 26.9237 34.4336C26.9237 34.0194 26.5879 33.6836 26.1737 33.6836L19.75 33.6836ZM30.7621 31.8477C31.9293 31.8477 32.9159 32.6212 33.2372 33.6836L36.2682 33.6836C36.6824 33.6836 37.0182 34.0194 37.0182 34.4336C37.0182 34.8478 36.6824 35.1836 36.2682 35.1836L33.2368 35.1836C32.9152 36.2454 31.9289 37.0184 30.7621 37.0184C29.3343 37.0184 28.1768 35.8609 28.1768 34.433C28.1768 33.0052 29.3343 31.8477 30.7621 31.8477ZM31.8475 34.4336L31.8475 34.4311C31.8464 33.8326 31.3609 33.3477 30.7621 33.3477C30.1627 33.3477 29.6768 33.8336 29.6768 34.433C29.6768 35.0324 30.1627 35.5184 30.7621 35.5184C31.3607 35.5184 31.8461 35.0338 31.8475 34.4356L31.8475 34.4336ZM19 28.0098C19 27.5956 19.3358 27.2598 19.75 27.2598L22.7807 27.2598C23.1019 26.1974 24.0885 25.4238 25.2558 25.4238C26.6836 25.4238 27.8411 26.5813 27.8411 28.0092C27.8411 29.437 26.6836 30.5945 25.2558 30.5945C24.089 30.5945 23.1027 29.8216 22.7811 28.7598L19.75 28.7598C19.3358 28.7598 19 28.424 19 28.0098ZM24.1705 28.0257C24.1794 28.6175 24.6619 29.0945 25.2558 29.0945C25.8552 29.0945 26.3411 28.6086 26.3411 28.0092C26.3411 27.4098 25.8552 26.9238 25.2558 26.9238C24.6616 26.9238 24.179 27.4012 24.1705 27.9933C24.1706 27.9988 24.1707 28.0043 24.1707 28.0098C24.1707 28.0151 24.1706 28.0204 24.1705 28.0257ZM29.0944 28.0098C29.0944 27.5956 29.4302 27.2598 29.8444 27.2598L36.2682 27.2598C36.6824 27.2598 37.0182 27.5956 37.0182 28.0098C37.0182 28.424 36.6824 28.7598 36.2682 28.7598L29.8444 28.7598C29.4302 28.7598 29.0944 28.424 29.0944 28.0098Z" fill="url(#paint0_linear_42_343)"/>
<defs>
<linearGradient id="paint0_linear_42_343" x1="37.0182" y1="19" x2="17.8226" y2="20.3564" gradientUnits="userSpaceOnUse">
<stop stop-color="#3B88D2"/>
<stop offset="1" stop-color="#2666A4"/>
</linearGradient>
</defs>
</svg>
