<svg width="28" height="28" viewBox="0 0 28 28" fill="none" xmlns="http://www.w3.org/2000/svg">
<path d="M20 3V9H8V20H2V5C2.00156 4.47005 2.21277 3.96224 2.58751 3.58751C2.96224 3.21277 3.47005 3.00156 4 3H20Z" fill="#4285F4"/>
<path d="M20 26V20H26L20 26Z" fill="#EA4435"/>
<path d="M26 8H20V20H26V8Z" fill="#FFBA00"/>
<path d="M20 26V20H8V26H20Z" fill="#00AC47"/>
<path d="M26 5V9H20V3H24C24.53 3.00156 25.0378 3.21277 25.4125 3.58751C25.7872 3.96224 25.9984 4.47005 26 5V5Z" fill="#0066DA"/>
<path d="M8 20V26H4C3.47005 25.9984 2.96224 25.7872 2.58751 25.4125C2.21277 25.0378 2.00156 24.53 2 24V20H8Z" fill="#188038"/>
<path d="M13.6875 15.5889C13.6875 16.4789 13.0275 17.3789 11.5375 17.3789C11.0052 17.3859 10.4806 17.2513 10.0175 16.9889L9.9375 16.9289L10.2275 16.1089L10.3575 16.1889C10.7109 16.4029 11.1144 16.5202 11.5275 16.5289C11.6875 16.5391 11.8479 16.5169 11.9991 16.4637C12.1503 16.4104 12.2892 16.3271 12.4075 16.2189C12.4923 16.134 12.5583 16.0323 12.6014 15.9204C12.6444 15.8084 12.6635 15.6887 12.6575 15.5689C12.6475 14.8389 11.9775 14.5789 11.3475 14.5789H10.8075V13.7689H11.3475C11.7975 13.7689 12.4675 13.5489 12.4675 12.9489C12.4675 12.4989 12.1575 12.2389 11.6175 12.2389C11.2449 12.247 10.883 12.3653 10.5775 12.5789L10.4375 12.6789L10.1575 11.8889L10.2275 11.8289C10.6839 11.5355 11.2149 11.3794 11.7575 11.3789C12.9475 11.3789 13.4775 12.1089 13.4775 12.8289C13.4788 13.0999 13.4035 13.3658 13.2602 13.5958C13.1168 13.8259 12.9114 14.0107 12.6675 14.1289C12.9695 14.234 13.2306 14.4317 13.4137 14.6939C13.5969 14.956 13.6927 15.2692 13.6875 15.5889V15.5889Z" fill="#4285F4"/>
<path d="M16.712 11.4805V17.2905H15.732V12.5005L14.792 13.0105L14.582 12.1905L15.952 11.4805H16.712Z" fill="#4285F4"/>
</svg>
